^F:\QYL\FRMCHAPTER11\FRMCHAPTER11\FRMCAR.RESX|F:\QYL\FRMCHAPTER11\FRMCHAPTER11\PROPERTIES\RESOURCES.RESX
F:\QYL\FRMCHAPTER11\FRMCHAPTER11\OBJ\X86\DEBUG\FRMCHAPTER11.FRMCAR.RESOURCES
F:\QYL\FRMCHAPTER11\FRMCHAPTER11\OBJ\X86\DEBUG\FRMCHAPTER11.PROPERTIES.RESOURCES.RESOURCES
^F:\QYL\FRMCHAPTER11\FRMCHAPTER11\FRMRENT.RESX|F:\QYL\FRMCHAPTER11\FRMCHAPTER11\PROPERTIES\RESOURCES.RESX
F:\QYL\FRMCHAPTER11\FRMCHAPTER11\OBJ\X86\DEBUG\FRMCHAPTER11.FRMRENT.RESOURCES
F:\QYL\FRMCHAPTER11\FRMCHAPTER11\OBJ\X86\DEBUG\FRMCHAPTER11.PROPERTIES.RESOURCES.RESOURCES
